…
The analyzed data contains both the frequency and the difference in percentage of males and females in a given age-range, as shown below.



```r
    ##show the analyzed data
    analyzed
```

```
## Source: local data frame [28 x 6]
## Groups: age_group [14]
## 
##    age_group    sex n_sex n_age      freq delta_percent
##       <fctr>  <chr> <int> <int>     <dbl>         <dbl>
## 1         18 female   281   611 0.4599018      -8.01964
## 2         18   male   330   611 0.5400982       8.01964
## 3         22 female  2838  6761 0.4197604     -16.04792
## 4         22   male  3923  6761 0.5802396      16.04792
## 5         26 female  5325 14182 0.3754760     -24.90481
## 6         26   male  8857 14182 0.6245240      24.90481
## 7         30 female  4820 12762 0.3776837     -24.46325
## 8         30   male  7942 12762 0.6223163      24.46325
## 9         34 female  3455  8450 0.4088757     -18.22485
## 10        34   male  4995  8450 0.5911243      18.22485
## # ... with 18 more rows
```
…
