…
```{r echo=1:5, fig.align='center', fig.height=5,fig.width=7.5, message = FALSE}
    ## clean data 
    cleaned <- filter(profiles, !is.na(drinks), !is.na(religion), !is.na(sex)) %>% as_data_frame
    
    ## get affiliation (strip devoutness modifiers) using gsub and simple regex
    cleaned$religious_affil <- gsub(' [A-z ]*', '', cleaned$religion) %>% as.factor()
    
    ## convert cleaned$drinks to factor
    cleaned$drinks <- cleaned$drinks %>% as.factor()
    
    ## group the data 
    drinks_and_religion <- group_by(cleaned[,c("drinks", "religious_affil", "sex")], drinks, religious_affil, sex) %>% summarize(n = n())
    
    # Source: local data frame [106 x 4]
    # Groups: drinks, religious_affil [?]
    # 
    #         drinks religious_affil   sex     n
    #         <fctr>          <fctr> <chr> <int>
    # 1  desperately     agnosticism     f    25
    # 2  desperately     agnosticism     m    37
    # 3  desperately         atheism     f    18
    # 4  desperately         atheism     m    40
    # 5  desperately        buddhism     f     5
    # 6  desperately        buddhism     m    15
    # 7  desperately     catholicism     f     4
    # 8  desperately     catholicism     m     7
    # 9  desperately    christianity     f     7
    # 10 desperately    christianity     m     7
    # # ... with 96 more rows
…
    cleaned <- filter(cleaned, grepl("somewhat serious", religion) | grepl("very serious", religion))
    
    

    ## get affiliation (strip modifiers) using gsub and simple regex
    cleaned$religious_affil <- gsub(' [A-z ]*', '', cleaned$religion) %>% as.factor()
    
    ## convert bnG$drinks to factor
    cleaned$drinks <- cleaned$drinks %>% as.factor()
    
    ## group the data 
    drinks_and_religion <- group_by(cleaned[,c("drinks", "religious_affil", "sex")], drinks, religious_affil, sex) %>% summarize(n = n())
    
    # Source: local data frame [106 x 4]
    # Groups: drinks, religious_affil [?]
    # 
    #         drinks religious_affil   sex     n
    #         <fctr>          <fctr> <chr> <int>
    # 1  desperately     agnosticism     f    25
    # 2  desperately     agnosticism     m    37
    # 3  desperately         atheism     f    18
    # 4  desperately         atheism     m    40
    # 5  desperately        buddhism     f     5
    # 6  desperately        buddhism     m    15
    # 7  desperately     catholicism     f     4
    # 8  desperately     catholicism     m     7
    # 9  desperately    christianity     f     7
    # 10 desperately    christianity     m     7
    # # ... with 96 more rows
…
```

For non-devout we select for _"not too serious"_ and _"laughing about it"_ prior to other cleaning 


```{r echo=4, fig.align='center', fig.height=4,fig.width=9, message = FALSE}
    ## clean religion data into broad category
    cleaned <- filter(profiles, !is.na(drinks), !is.na(religion), !is.na(sex)) %>% as_data_frame

    cleaned <- filter(cleaned, grepl("not too serious", religion) | grepl("laughing about it", religion))
    
    # # A tibble: 38,729 x 22
    #       age     body_type                diet
    #       <int>       <chr>               <chr>
    # 1     22 a little extra   strictly anything
    # 2     35        average        mostly other
    # 3     29        average     mostly anything
    # 4     31        average     mostly anything
    # 5     24           <NA>   strictly anything
    # 6     37       athletic     mostly anything
    # 7     28        average     mostly anything
    # 8     24           <NA>              <NA>
    # 9     30         skinny     mostly anything
    # 10    29           thin     mostly anything
    # # ... with 38,719 more rows, and 19 more
    # #   variables: drinks <chr>, drugs <chr>,
    # #   education <chr>, ethnicity <chr>,
    # #   height <int>, income <int>, job <chr>,
    # #   last_online <time>, location <chr>,
    # #   offspring <chr>, orientation <chr>,
    # #   pets <chr>, religion <chr>, sex <chr>,
    # #   sign <chr>, smokes <chr>, speaks <chr>,
    # #   status <chr>, essay0 <chr>
    

    ## get affiliation (strip modifiers) using gsub and simple regex
    cleaned$religious_affil <- gsub(' [A-z ]*', '', cleaned$religion) %>% as.factor()
    
    ## convert bnG$drinks to factor
    cleaned$drinks <- cleaned$drinks %>% as.factor()
    
    ## group the data 
    drinks_and_religion <- group_by(cleaned[,c("drinks", "religious_affil", "sex")], drinks, religious_affil, sex) %>% summarize(n = n())
    
    # Source: local data frame [106 x 4]
    # Groups: drinks, religious_affil [?]
    # 
    #         drinks religious_affil   sex     n
    #         <fctr>          <fctr> <chr> <int>
    # 1  desperately     agnosticism     f    25
    # 2  desperately     agnosticism     m    37
    # 3  desperately         atheism     f    18
    # 4  desperately         atheism     m    40
    # 5  desperately        buddhism     f     5
    # 6  desperately        buddhism     m    15
    # 7  desperately     catholicism     f     4
    # 8  desperately     catholicism     m     7
    # 9  desperately    christianity     f     7
    # 10 desperately    christianity     m     7
    # # ... with 96 more rows
…
    ## get affiliation (strip modifiers) using gsub and simple regex
    bnG$religious_affil <- gsub(' [A-z ]*', '', bnG$religion) %>% as.factor()
    
    ## group the data 
    bnG_rd <- group_by(bnG[,c("religious_affil", "sex")], religious_affil, sex) %>% summarize(n = n())
    
    bnG_r <- group_by(bnG[,c("religious_affil", "sex")], sex) %>% summarize(NN = n())
    
  
    bnG_final <- left_join(bnG_rd, bnG_r) %>% mutate(freq = n/NN, freq = ifelse(is.na(freq), 0, freq))
    
    
    
    # Source: local data frame [106 x 6]
    # Groups: drinks, religious_affil [54]
    # 
    #         drinks religious_affil   sex     n    NN        freq
    #         <fctr>          <fctr> <chr> <int> <dbl>       <dbl>
    # 1  desperately     agnosticism     f    25  3184 0.007851759
    # 2  desperately     agnosticism     m    37  5421 0.006825309
    # 3  desperately         atheism     f    18  1882 0.009564293
    # 4  desperately         atheism     m    40  4921 0.008128429
    # 5  desperately        buddhism     f     5   791 0.006321113
    # 6  desperately        buddhism     m    15  1090 0.013761468
    # 7  desperately     catholicism     f     4  2059 0.001942691
    # 8  desperately     catholicism     m     7  2613 0.002678913
    # 9  desperately    christianity     f     7  2606 0.002686109
    # 10 desperately    christianity     m     7  3052 0.002293578
    # # ... with 96 more rows
…
