…
The data are split into __training__ and __test__ data sets using a well known methods. Here is a snapshot of the training data. 


```r
# split data into training and test data sets
set.seed(8675309)
data_cut <- sample(1:nrow(cleaned_sel), 0.6 * nrow(cleaned_sel))


train_data <- cleaned_sel[data_cut, ]
test_data <- cleaned_sel[-data_cut, ]
```

```
# A tibble: 3,349 × 8
   log_income    sex     drinks religious_affil education_simple   age
        <dbl> <fctr>     <fctr>          <fctr>           <fctr> <int>
1    4.903090      m     rarely     agnosticism        graduated    59
2    4.903090      m   socially           other        graduated    38
3    5.000000      m   socially         atheism        graduated    43
4    4.778151      m      often         atheism        graduated    28
5    4.477121      m     rarely         atheism   graduated-year    50
6    4.845098      m   socially         atheism        graduated    26
7    4.903090      m   socially     catholicism        graduated    27
8    4.602060      m   socially     agnosticism   graduated-year    26
9    4.477121      m not at all    christianity             high    43
10   5.176091      m     rarely           other        graduated    58
# ... with 3,339 more rows, and 2 more variables: job <fctr>,
#   height <fctr>
```
…
